[

{
    
    "link": "https://play.google.com/store/apps/details?id=dev.sarthak.symmetrics",
    "banner": "https://i.imgur.com/LqWtwD6.jpg"
},

{
    
    "link": "https://play.google.com/store/apps/details?id=dev.sarthak.weather.app",
    "banner": "https://i.imgur.com/aXcAbgA.jpg"
},
{
    
    "link": "https://play.google.com/store/apps/details?id=dev.sarthak.a12klwp.pack",
    "banner": "https://i.imgur.com/dxNzmac.jpg"
}

]
